{
  "dev":{
    "ninym_master": "http://localhost:8079",
    "ninym_websocket_host": "ws://localhost:81",
    "ninym_websocket_token": "test-secret",
    "ninym_auth_token": "test-secret",
    "shoko_host": "http://localhost:8111"
  },
  "production": {
    "ninym_master": "https://ninym.finlaydag33k.nl",
    "ninym_websocket_host": "wss://ninym.finlaydag33k.nl",
    "ninym_websocket_token": "test-secret",
    "ninym_auth_token": "test-secret"
  }
}
